<?xml version="1.0" encoding="UTF-8" standalone="no"?>
<!-- Created with Inkscape (http://www.inkscape.org/) -->

<svg
   version="1.1"
   id="svg2"
   width="567.99738"
   height="396.82556"
   viewBox="0 0 567.99738 396.82556"
   sodipodi:docname="red-green-blue-black-background.svg"
   inkscape:version="1.1.2 (0a00cf5339, 2022-02-04)"
   inkscape:export-filename="/home/sedelpeuch/eirlab/communication-tools/eirlab_logo.png"
   inkscape:export-xdpi="96"
   inkscape:export-ydpi="96"
   xmlns:inkscape="http://www.inkscape.org/namespaces/inkscape"
   xmlns:sodipodi="http://sodipodi.sourceforge.net/DTD/sodipodi-0.dtd"
   xmlns="http://www.w3.org/2000/svg"
   xmlns:svg="http://www.w3.org/2000/svg">
  <defs
     id="defs6">
    <clipPath
       clipPathUnits="userSpaceOnUse"
       id="clipPath937">
      <rect
         style="opacity:0.1;fill:#000000;stroke-width:0.377953;stroke-linecap:round;stroke-linejoin:round"
         id="rect939"
         width="567.99738"
         height="396.82556"
         x="336.83017"
         y="426.38022" />
    </clipPath>
    <clipPath
       clipPathUnits="userSpaceOnUse"
       id="clipPath1484">
      <path
         style="display:inline;opacity:1;fill:#000000;stroke:none;stroke-width:3.17866;stroke-linecap:round;stroke-linejoin:round;stroke-miterlimit:8"
         id="path1486"
         width="564.81836"
         height="393.64734"
         x="338.41968"
         y="427.96933"
         sodipodi:type="rect"
         clip-path="none"
         d="M 338.41968,427.96933 H 903.23804 V 821.61667 H 338.41968 Z" />
    </clipPath>
    <linearGradient
       id="linearGradient4689">
      <stop
         style="stop-color:#5a9fd4;stop-opacity:1;"
         offset="0"
         id="stop4691" />
      <stop
         style="stop-color:#306998;stop-opacity:1;"
         offset="1"
         id="stop4693" />
    </linearGradient>
    <linearGradient
       id="linearGradient4671">
      <stop
         style="stop-color:#ffd43b;stop-opacity:1;"
         offset="0"
         id="stop4673" />
      <stop
         style="stop-color:#ffe873;stop-opacity:1"
         offset="1"
         id="stop4675" />
    </linearGradient>
    <clipPath
       clipPathUnits="userSpaceOnUse"
       id="clipPath1484-3">
      <path
         style="display:inline;opacity:1;fill:#000000;stroke:none;stroke-width:3.17866;stroke-linecap:round;stroke-linejoin:round;stroke-miterlimit:8"
         id="path1486-6"
         width="564.81836"
         height="393.64734"
         x="338.41968"
         y="427.96933"
         sodipodi:type="rect"
         clip-path="none" />
    </clipPath>
    <clipPath
       clipPathUnits="userSpaceOnUse"
       id="clipPath1599">
      <rect
         style="opacity:1;fill:#000000;stroke:none;stroke-width:0.782138;stroke-linecap:round;stroke-linejoin:round"
         id="rect1601"
         width="104.86652"
         height="88.567993"
         x="-25.331278"
         y="11.69032" />
    </clipPath>
  </defs>
  <sodipodi:namedview
     id="namedview4"
     pagecolor="#ffffff"
     bordercolor="#666666"
     borderopacity="1.0"
     inkscape:pageshadow="2"
     inkscape:pageopacity="0.0"
     inkscape:pagecheckerboard="0"
     showgrid="false"
     inkscape:zoom="0.9019731"
     inkscape:cx="239.47499"
     inkscape:cy="186.81267"
     inkscape:window-width="1920"
     inkscape:window-height="997"
     inkscape:window-x="0"
     inkscape:window-y="25"
     inkscape:window-maximized="1"
     inkscape:current-layer="g16746"
     fit-margin-top="0"
     fit-margin-left="0"
     fit-margin-right="0"
     fit-margin-bottom="0" />
  <g
     inkscape:groupmode="layer"
     inkscape:label="Image"
     id="g8"
     transform="translate(-336.83017,-426.38022)">
    <g
       id="g16746"
       inkscape:export-filename="/home/sedelpeuch/eirlab.png"
       inkscape:export-xdpi="96"
       inkscape:export-ydpi="96">
      <g
         id="g1388"
         transform="translate(8.1220573)"
         style="opacity:0.2">
        <rect
           style="opacity:0.9;fill:#ff0000;stroke:#ffffff;stroke-width:3.77953;stroke-linecap:round;stroke-linejoin:round"
           id="rect943"
           width="37.95715"
           height="37.95715"
           x="347.78928"
           y="439.55209" />
        <rect
           style="opacity:0.9;fill:#00ff00;stroke:#ffffff;stroke-width:3.77953;stroke-linecap:round;stroke-linejoin:round"
           id="rect943-8"
           width="37.95715"
           height="37.95715"
           x="418.05756"
           y="439.55209" />
        <rect
           style="opacity:0.9;fill:#0000ff;stroke:#ffffff;stroke-width:3.77953;stroke-linecap:round;stroke-linejoin:round"
           id="rect943-8-3"
           width="37.95715"
           height="37.95715"
           x="488.32581"
           y="439.55209" />
        <rect
           style="opacity:0.9;fill:#000000;stroke:#ffffff;stroke-width:3.77953;stroke-linecap:round;stroke-linejoin:round"
           id="rect943-8-3-8"
           width="37.95715"
           height="37.95715"
           x="558.59412"
           y="439.55209" />
        <rect
           style="opacity:0.9;fill:#ff0000;stroke:#ffffff;stroke-width:3.77953;stroke-linecap:round;stroke-linejoin:round"
           id="rect943-9"
           width="37.95715"
           height="37.95715"
           x="628.86237"
           y="439.55209" />
        <rect
           style="opacity:0.9;fill:#00ff00;stroke:#ffffff;stroke-width:3.77953;stroke-linecap:round;stroke-linejoin:round"
           id="rect943-8-1"
           width="37.95715"
           height="37.95715"
           x="699.13062"
           y="439.55209" />
        <rect
           style="opacity:0.9;fill:#0000ff;stroke:#ffffff;stroke-width:3.77953;stroke-linecap:round;stroke-linejoin:round"
           id="rect943-8-3-9"
           width="37.95715"
           height="37.95715"
           x="769.39893"
           y="439.55209" />
        <rect
           style="opacity:0.9;fill:#000000;stroke:#ffffff;stroke-width:3.77953;stroke-linecap:round;stroke-linejoin:round"
           id="rect943-8-3-8-6"
           width="37.95715"
           height="37.95715"
           x="839.66718"
           y="439.55209" />
      </g>
      <g
         id="g1388-3"
         transform="translate(8.1220573,66.103588)"
         style="opacity:0.2">
        <rect
           style="opacity:0.9;fill:#ff0000;stroke:#ffffff;stroke-width:3.77953;stroke-linecap:round;stroke-linejoin:round"
           id="rect943-5"
           width="37.95715"
           height="37.95715"
           x="347.78928"
           y="439.55209" />
        <rect
           style="opacity:0.9;fill:#00ff00;stroke:#ffffff;stroke-width:3.77953;stroke-linecap:round;stroke-linejoin:round"
           id="rect943-8-17"
           width="37.95715"
           height="37.95715"
           x="418.05756"
           y="439.55209" />
        <rect
           style="opacity:0.9;fill:#0000ff;stroke:#ffffff;stroke-width:3.77953;stroke-linecap:round;stroke-linejoin:round"
           id="rect943-8-3-4"
           width="37.95715"
           height="37.95715"
           x="488.32581"
           y="439.55209" />
        <rect
           style="opacity:0.9;fill:#000000;stroke:#ffffff;stroke-width:3.77953;stroke-linecap:round;stroke-linejoin:round"
           id="rect943-8-3-8-3"
           width="37.95715"
           height="37.95715"
           x="558.59412"
           y="439.55209" />
        <rect
           style="opacity:0.9;fill:#ff0000;stroke:#ffffff;stroke-width:3.77953;stroke-linecap:round;stroke-linejoin:round"
           id="rect943-9-1"
           width="37.95715"
           height="37.95715"
           x="628.86237"
           y="439.55209" />
        <rect
           style="opacity:0.9;fill:#00ff00;stroke:#ffffff;stroke-width:3.77953;stroke-linecap:round;stroke-linejoin:round"
           id="rect943-8-1-4"
           width="37.95715"
           height="37.95715"
           x="699.13062"
           y="439.55209" />
        <rect
           style="opacity:0.9;fill:#0000ff;stroke:#ffffff;stroke-width:3.77953;stroke-linecap:round;stroke-linejoin:round"
           id="rect943-8-3-9-6"
           width="37.95715"
           height="37.95715"
           x="769.39893"
           y="439.55209" />
        <rect
           style="opacity:0.9;fill:#000000;stroke:#ffffff;stroke-width:3.77953;stroke-linecap:round;stroke-linejoin:round"
           id="rect943-8-3-8-6-9"
           width="37.95715"
           height="37.95715"
           x="839.66718"
           y="439.55209" />
      </g>
      <g
         id="g1388-4"
         transform="translate(8.1220573,132.20718)"
         style="opacity:0.2">
        <rect
           style="opacity:0.9;fill:#ff0000;stroke:#ffffff;stroke-width:3.77953;stroke-linecap:round;stroke-linejoin:round"
           id="rect943-2"
           width="37.95715"
           height="37.95715"
           x="347.78928"
           y="439.55209" />
        <rect
           style="opacity:0.9;fill:#00ff00;stroke:#ffffff;stroke-width:3.77953;stroke-linecap:round;stroke-linejoin:round"
           id="rect943-8-2"
           width="37.95715"
           height="37.95715"
           x="418.05756"
           y="439.55209" />
        <rect
           style="opacity:0.9;fill:#0000ff;stroke:#ffffff;stroke-width:3.77953;stroke-linecap:round;stroke-linejoin:round"
           id="rect943-8-3-6"
           width="37.95715"
           height="37.95715"
           x="488.32581"
           y="439.55209" />
        <rect
           style="opacity:0.9;fill:#000000;stroke:#ffffff;stroke-width:3.77953;stroke-linecap:round;stroke-linejoin:round"
           id="rect943-8-3-8-4"
           width="37.95715"
           height="37.95715"
           x="558.59412"
           y="439.55209" />
        <rect
           style="opacity:0.9;fill:#ff0000;stroke:#ffffff;stroke-width:3.77953;stroke-linecap:round;stroke-linejoin:round"
           id="rect943-9-12"
           width="37.95715"
           height="37.95715"
           x="628.86237"
           y="439.55209" />
        <rect
           style="opacity:0.9;fill:#00ff00;stroke:#ffffff;stroke-width:3.77953;stroke-linecap:round;stroke-linejoin:round"
           id="rect943-8-1-8"
           width="37.95715"
           height="37.95715"
           x="699.13062"
           y="439.55209" />
        <rect
           style="opacity:0.9;fill:#0000ff;stroke:#ffffff;stroke-width:3.77953;stroke-linecap:round;stroke-linejoin:round"
           id="rect943-8-3-9-8"
           width="37.95715"
           height="37.95715"
           x="769.39893"
           y="439.55209" />
        <rect
           style="opacity:0.9;fill:#000000;stroke:#ffffff;stroke-width:3.77953;stroke-linecap:round;stroke-linejoin:round"
           id="rect943-8-3-8-6-92"
           width="37.95715"
           height="37.95715"
           x="839.66718"
           y="439.55209" />
      </g>
      <g
         id="g1388-8"
         transform="translate(8.1220573,198.31077)"
         style="opacity:0.2">
        <rect
           style="opacity:0.9;fill:#ff0000;stroke:#ffffff;stroke-width:3.77953;stroke-linecap:round;stroke-linejoin:round"
           id="rect943-88"
           width="37.95715"
           height="37.95715"
           x="347.78928"
           y="439.55209" />
        <rect
           style="opacity:0.9;fill:#00ff00;stroke:#ffffff;stroke-width:3.77953;stroke-linecap:round;stroke-linejoin:round"
           id="rect943-8-6"
           width="37.95715"
           height="37.95715"
           x="418.05756"
           y="439.55209" />
        <rect
           style="opacity:0.9;fill:#0000ff;stroke:#ffffff;stroke-width:3.77953;stroke-linecap:round;stroke-linejoin:round"
           id="rect943-8-3-83"
           width="37.95715"
           height="37.95715"
           x="488.32581"
           y="439.55209" />
        <rect
           style="opacity:0.9;fill:#000000;stroke:#ffffff;stroke-width:3.77953;stroke-linecap:round;stroke-linejoin:round"
           id="rect943-8-3-8-8"
           width="37.95715"
           height="37.95715"
           x="558.59412"
           y="439.55209" />
        <rect
           style="opacity:0.9;fill:#ff0000;stroke:#ffffff;stroke-width:3.77953;stroke-linecap:round;stroke-linejoin:round"
           id="rect943-9-3"
           width="37.95715"
           height="37.95715"
           x="628.86237"
           y="439.55209" />
        <rect
           style="opacity:0.9;fill:#00ff00;stroke:#ffffff;stroke-width:3.77953;stroke-linecap:round;stroke-linejoin:round"
           id="rect943-8-1-3"
           width="37.95715"
           height="37.95715"
           x="699.13062"
           y="439.55209" />
        <rect
           style="opacity:0.9;fill:#0000ff;stroke:#ffffff;stroke-width:3.77953;stroke-linecap:round;stroke-linejoin:round"
           id="rect943-8-3-9-3"
           width="37.95715"
           height="37.95715"
           x="769.39893"
           y="439.55209" />
        <rect
           style="opacity:0.9;fill:#000000;stroke:#ffffff;stroke-width:3.77953;stroke-linecap:round;stroke-linejoin:round"
           id="rect943-8-3-8-6-8"
           width="37.95715"
           height="37.95715"
           x="839.66718"
           y="439.55209" />
      </g>
      <g
         id="g1388-0"
         transform="translate(8.1220573,264.41436)"
         style="opacity:0.2">
        <rect
           style="opacity:0.9;fill:#ff0000;stroke:#ffffff;stroke-width:3.77953;stroke-linecap:round;stroke-linejoin:round"
           id="rect943-4"
           width="37.95715"
           height="37.95715"
           x="347.78928"
           y="439.55209" />
        <rect
           style="opacity:0.9;fill:#00ff00;stroke:#ffffff;stroke-width:3.77953;stroke-linecap:round;stroke-linejoin:round"
           id="rect943-8-7"
           width="37.95715"
           height="37.95715"
           x="418.05756"
           y="439.55209" />
        <rect
           style="opacity:0.9;fill:#0000ff;stroke:#ffffff;stroke-width:3.77953;stroke-linecap:round;stroke-linejoin:round"
           id="rect943-8-3-68"
           width="37.95715"
           height="37.95715"
           x="488.32581"
           y="439.55209" />
        <rect
           style="opacity:0.9;fill:#000000;stroke:#ffffff;stroke-width:3.77953;stroke-linecap:round;stroke-linejoin:round"
           id="rect943-8-3-8-9"
           width="37.95715"
           height="37.95715"
           x="558.59412"
           y="439.55209" />
        <rect
           style="opacity:0.9;fill:#ff0000;stroke:#ffffff;stroke-width:3.77953;stroke-linecap:round;stroke-linejoin:round"
           id="rect943-9-0"
           width="37.95715"
           height="37.95715"
           x="628.86237"
           y="439.55209" />
        <rect
           style="opacity:0.9;fill:#00ff00;stroke:#ffffff;stroke-width:3.77953;stroke-linecap:round;stroke-linejoin:round"
           id="rect943-8-1-6"
           width="37.95715"
           height="37.95715"
           x="699.13062"
           y="439.55209" />
        <rect
           style="opacity:0.9;fill:#0000ff;stroke:#ffffff;stroke-width:3.77953;stroke-linecap:round;stroke-linejoin:round"
           id="rect943-8-3-9-87"
           width="37.95715"
           height="37.95715"
           x="769.39893"
           y="439.55209" />
        <rect
           style="opacity:0.9;fill:#000000;stroke:#ffffff;stroke-width:3.77953;stroke-linecap:round;stroke-linejoin:round"
           id="rect943-8-3-8-6-90"
           width="37.95715"
           height="37.95715"
           x="839.66718"
           y="439.55209" />
      </g>
      <g
         id="g1388-33"
         transform="translate(8.1220573,330.51797)"
         style="opacity:0.2">
        <rect
           style="opacity:0.9;fill:#ff0000;stroke:#ffffff;stroke-width:3.77953;stroke-linecap:round;stroke-linejoin:round"
           id="rect943-3"
           width="37.95715"
           height="37.95715"
           x="347.78928"
           y="439.55209" />
        <rect
           style="opacity:0.9;fill:#00ff00;stroke:#ffffff;stroke-width:3.77953;stroke-linecap:round;stroke-linejoin:round"
           id="rect943-8-73"
           width="37.95715"
           height="37.95715"
           x="418.05756"
           y="439.55209" />
        <rect
           style="opacity:0.9;fill:#0000ff;stroke:#ffffff;stroke-width:3.77953;stroke-linecap:round;stroke-linejoin:round"
           id="rect943-8-3-2"
           width="37.95715"
           height="37.95715"
           x="488.32581"
           y="439.55209" />
        <rect
           style="opacity:0.9;fill:#000000;stroke:#ffffff;stroke-width:3.77953;stroke-linecap:round;stroke-linejoin:round"
           id="rect943-8-3-8-65"
           width="37.95715"
           height="37.95715"
           x="558.59412"
           y="439.55209" />
        <rect
           style="opacity:0.9;fill:#ff0000;stroke:#ffffff;stroke-width:3.77953;stroke-linecap:round;stroke-linejoin:round"
           id="rect943-9-2"
           width="37.95715"
           height="37.95715"
           x="628.86237"
           y="439.55209" />
        <rect
           style="opacity:0.9;fill:#00ff00;stroke:#ffffff;stroke-width:3.77953;stroke-linecap:round;stroke-linejoin:round"
           id="rect943-8-1-65"
           width="37.95715"
           height="37.95715"
           x="699.13062"
           y="439.55209" />
        <rect
           style="opacity:0.9;fill:#0000ff;stroke:#ffffff;stroke-width:3.77953;stroke-linecap:round;stroke-linejoin:round"
           id="rect943-8-3-9-879"
           width="37.95715"
           height="37.95715"
           x="769.39893"
           y="439.55209" />
        <rect
           style="opacity:0.9;fill:#000000;stroke:#ffffff;stroke-width:3.77953;stroke-linecap:round;stroke-linejoin:round"
           id="rect943-8-3-8-6-6"
           width="37.95715"
           height="37.95715"
           x="839.66718"
           y="439.55209" />
      </g>
    </g>
  </g>
</svg>
